%YAML 1.1
%TAG !u! tag:unity3d.com,2011:
--- !u!1045 &1
EditorBuildSettings:
  m_ObjectHideFlags: 0
  serializedVersion: 2
  m_Scenes:
  - enabled: 1
    path: Assets/Scenes/Main.unity
    guid: 20f9f61a0b0b0704c917e934afd982c2
  - enabled: 1
    path: Assets/Scenes/LoadingScene.unity
    guid: 4a825d60dee10a145b41a2cef8cd59bc
  - enabled: 1
    path: Assets/Scenes/Game.unity
    guid: 9fc0d4010bbf28b4594072e72b8655ab
  m_configObjects: {}
